[
    {
        "name": "Куртка Бомбер",
        "price": "1000",
        "url": "./productsImages/product1.jpg",
        "article": "001",
        "color": "Чорний"
    },
    {
        "name": "Костюм жіночий",
        "price": "750",
        "url": "./productsImages/product2.jpg",
        "article": "002",
        "color": "Чорний"
    },
    {
        "name": "Сукня максі",
        "price": "800",
        "url": "./productsImages/product3.jpg",
        "article": "003",
        "color": "Сірий"
    },
    {
        "name": "Куртка Бомбер",
        "price": "1000",
        "url": "./productsImages/product4.jpg",
        "article": "004",
        "color": "Бежевий"
    },
    {
        "name": "Сукня",
        "price": "850",
        "url": "./productsImages/product5.jpg",
        "article": "005",
        "color": "Білий"
    },
    {
        "name": "Худі чоловічий",
        "price": "600",
        "url": "./productsImages/product6.jpg",
        "article": "006",
        "color": "Чорний"
    },
    {
        "name": "Жилет",
        "price": "500",
        "url": "./productsImages/product7.jpg",
        "article": "007",
        "color": "Білий"
    },
    {
        "name": "Спортивний топ",
        "price": "450",
        "url": "./productsImages/product8.jpg",
        "article": "008",
        "color": "Помаранчевий"
    },
    {
        "name": "Лонгслів",
        "price": "345",
        "url": "./productsImages/product9.jpg",
        "article": "009",
        "color": "Синій"
    },
    {
        "name": "Піджак",
        "price": "780",
        "url": "./productsImages/product10.jpg",
        "article": "010",
        "color": "Сірий"
    }
]